%YAML 1.1
%TAG !u! tag:unity3d.com,2011:
--- !u!1 &7460378326800081543
GameObject:
  m_ObjectHideFlags: 0
  m_CorrespondingSourceObject: {fileID: 0}
  m_PrefabInstance: {fileID: 0}
  m_PrefabAsset: {fileID: 0}
  serializedVersion: 6
  m_Component:
  - component: {fileID: 7460378326800081545}
  - component: {fileID: 7460378326800081544}
  m_Layer: 0
  m_Name: Global Scripts
  m_TagString: Untagged
  m_Icon: {fileID: 0}
  m_NavMeshLayer: 0
  m_StaticEditorFlags: 0
  m_IsActive: 1
--- !u!4 &7460378326800081545
Transform:
  m_ObjectHideFlags: 0
  m_CorrespondingSourceObject: {fileID: 0}
  m_PrefabInstance: {fileID: 0}
  m_PrefabAsset: {fileID: 0}
  m_GameObject: {fileID: 7460378326800081543}
  m_LocalRotation: {x: 0, y: 0, z: 0, w: 1}
  m_LocalPosition: {x: -6.974152, y: 13.799986, z: -10.332018}
  m_LocalScale: {x: 1, y: 1, z: 1}
  m_Children: []
  m_Father: {fileID: 0}
  m_RootOrder: 0
  m_LocalEulerAnglesHint: {x: 0, y: 0, z: 0}
--- !u!114 &7460378326800081544
MonoBehaviour:
  m_ObjectHideFlags: 0
  m_CorrespondingSourceObject: {fileID: 0}
  m_PrefabInstance: {fileID: 0}
  m_PrefabAsset: {fileID: 0}
  m_GameObject: {fileID: 7460378326800081543}
  m_Enabled: 1
  m_EditorHideFlags: 0
  m_Script: {fileID: 11500000, guid: 95a04c9641c25964e9734ae1907fa326, type: 3}
  m_Name: 
  m_EditorClassIdentifier: 
  groundMaterialChecker: {fileID: 0}
  outdoorsVolume: 0.6
  indoorsVolume: 0.1
  musicSource: {fileID: 0}
  footstepsSource: {fileID: 0}
  blizzardSource: {fileID: 0}
  SnowWalkingSound: {fileID: 8300000, guid: f24b0956ecb73154d957029892a1e5f9, type: 3}
  ConcreteWalkingSound: {fileID: 8300000, guid: 5187d4dfd766b6a4785beb3933409cd8,
    type: 3}
