%YAML 1.1
%TAG !u! tag:unity3d.com,2011:
--- !u!1 &2484014610497342293
GameObject:
  m_ObjectHideFlags: 0
  m_CorrespondingSourceObject: {fileID: 0}
  m_PrefabInstance: {fileID: 0}
  m_PrefabAsset: {fileID: 0}
  serializedVersion: 6
  m_Component:
  - component: {fileID: 2968767758216679919}
  - component: {fileID: 2205907406421777994}
  - component: {fileID: 4141062402894244480}
  - component: {fileID: 791078785341254493}
  m_Layer: 0
  m_Name: Pallet with barrels
  m_TagString: Untagged
  m_Icon: {fileID: 0}
  m_NavMeshLayer: 0
  m_StaticEditorFlags: 0
  m_IsActive: 1
--- !u!4 &2968767758216679919
Transform:
  m_ObjectHideFlags: 0
  m_CorrespondingSourceObject: {fileID: 0}
  m_PrefabInstance: {fileID: 0}
  m_PrefabAsset: {fileID: 0}
  m_GameObject: {fileID: 2484014610497342293}
  m_LocalRotation: {x: -0, y: -0, z: -0, w: 1}
  m_LocalPosition: {x: -16.363285, y: -5.9090815, z: 6.4477005}
  m_LocalScale: {x: 1, y: 0.125, z: 1}
  m_Children:
  - {fileID: 7725133593251287682}
  - {fileID: 4263434445325439987}
  - {fileID: 9050623047893287221}
  m_Father: {fileID: 0}
  m_RootOrder: 0
  m_LocalEulerAnglesHint: {x: 0, y: 0, z: 0}
--- !u!33 &2205907406421777994
MeshFilter:
  m_ObjectHideFlags: 0
  m_CorrespondingSourceObject: {fileID: 0}
  m_PrefabInstance: {fileID: 0}
  m_PrefabAsset: {fileID: 0}
  m_GameObject: {fileID: 2484014610497342293}
  m_Mesh: {fileID: -5495902117074765545, guid: 4da67bdf13c99df47921c98266a34429, type: 3}
--- !u!23 &4141062402894244480
MeshRenderer:
  m_ObjectHideFlags: 0
  m_CorrespondingSourceObject: {fileID: 0}
  m_PrefabInstance: {fileID: 0}
  m_PrefabAsset: {fileID: 0}
  m_GameObject: {fileID: 2484014610497342293}
  m_Enabled: 1
  m_CastShadows: 1
  m_ReceiveShadows: 1
  m_DynamicOccludee: 1
  m_MotionVectors: 1
  m_LightProbeUsage: 1
  m_ReflectionProbeUsage: 1
  m_RayTracingMode: 2
  m_RenderingLayerMask: 1
  m_RendererPriority: 0
  m_Materials:
  - {fileID: 2100000, guid: 19c12f46990d8124fb4af74b32d1ef4a, type: 2}
  m_StaticBatchInfo:
    firstSubMesh: 0
    subMeshCount: 0
  m_StaticBatchRoot: {fileID: 0}
  m_ProbeAnchor: {fileID: 0}
  m_LightProbeVolumeOverride: {fileID: 0}
  m_ScaleInLightmap: 1
  m_ReceiveGI: 1
  m_PreserveUVs: 0
  m_IgnoreNormalsForChartDetection: 0
  m_ImportantGI: 0
  m_StitchLightmapSeams: 1
  m_SelectedEditorRenderState: 3
  m_MinimumChartSize: 4
  m_AutoUVMaxDistance: 0.5
  m_AutoUVMaxAngle: 89
  m_LightmapParameters: {fileID: 0}
  m_SortingLayerID: 0
  m_SortingLayer: 0
  m_SortingOrder: 0
--- !u!65 &791078785341254493
BoxCollider:
  m_ObjectHideFlags: 0
  m_CorrespondingSourceObject: {fileID: 0}
  m_PrefabInstance: {fileID: 0}
  m_PrefabAsset: {fileID: 0}
  m_GameObject: {fileID: 2484014610497342293}
  m_Material: {fileID: 0}
  m_IsTrigger: 0
  m_Enabled: 1
  serializedVersion: 2
  m_Size: {x: 2, y: 12.46, z: 2}
  m_Center: {x: 0, y: 5.03, z: 0.000000059604645}
--- !u!1001 &4368626291855127576
PrefabInstance:
  m_ObjectHideFlags: 0
  serializedVersion: 2
  m_Modification:
    m_TransformParent: {fileID: 2968767758216679919}
    m_Modifications:
    - target: {fileID: -8679921383154817045, guid: 633c33dc19545a84b92b33094a13eeab,
        type: 3}
      propertyPath: m_LocalPosition.x
      value: 0.47000122
      objectReference: {fileID: 0}
    - target: {fileID: -8679921383154817045, guid: 633c33dc19545a84b92b33094a13eeab,
        type: 3}
      propertyPath: m_LocalPosition.y
      value: 1.2171485
      objectReference: {fileID: 0}
    - target: {fileID: -8679921383154817045, guid: 633c33dc19545a84b92b33094a13eeab,
        type: 3}
      propertyPath: m_LocalPosition.z
      value: -0.008579254
      objectReference: {fileID: 0}
    - target: {fileID: -8679921383154817045, guid: 633c33dc19545a84b92b33094a13eeab,
        type: 3}
      propertyPath: m_LocalRotation.x
      value: -0
      objectReference: {fileID: 0}
    - target: {fileID: -8679921383154817045, guid: 633c33dc19545a84b92b33094a13eeab,
        type: 3}
      propertyPath: m_LocalRotation.y
      value: 0.49999917
      objectReference: {fileID: 0}
    - target: {fileID: -8679921383154817045, guid: 633c33dc19545a84b92b33094a13eeab,
        type: 3}
      propertyPath: m_LocalRotation.z
      value: -0
      objectReference: {fileID: 0}
    - target: {fileID: -8679921383154817045, guid: 633c33dc19545a84b92b33094a13eeab,
        type: 3}
      propertyPath: m_LocalRotation.w
      value: 0.8660259
      objectReference: {fileID: 0}
    - target: {fileID: -8679921383154817045, guid: 633c33dc19545a84b92b33094a13eeab,
        type: 3}
      propertyPath: m_RootOrder
      value: 1
      objectReference: {fileID: 0}
    - target: {fileID: -8679921383154817045, guid: 633c33dc19545a84b92b33094a13eeab,
        type: 3}
      propertyPath: m_LocalEulerAnglesHint.x
      value: 0
      objectReference: {fileID: 0}
    - target: {fileID: -8679921383154817045, guid: 633c33dc19545a84b92b33094a13eeab,
        type: 3}
      propertyPath: m_LocalEulerAnglesHint.y
      value: 60.000004
      objectReference: {fileID: 0}
    - target: {fileID: -8679921383154817045, guid: 633c33dc19545a84b92b33094a13eeab,
        type: 3}
      propertyPath: m_LocalEulerAnglesHint.z
      value: 0
      objectReference: {fileID: 0}
    - target: {fileID: -8679921383154817045, guid: 633c33dc19545a84b92b33094a13eeab,
        type: 3}
      propertyPath: m_LocalScale.y
      value: 8
      objectReference: {fileID: 0}
    - target: {fileID: -7511558181221131132, guid: 633c33dc19545a84b92b33094a13eeab,
        type: 3}
      propertyPath: m_Materials.Array.data[0]
      value: 
      objectReference: {fileID: 2100000, guid: ca51888b891a5f64a9fb80cbdab986e9, type: 2}
    - target: {fileID: 919132149155446097, guid: 633c33dc19545a84b92b33094a13eeab,
        type: 3}
      propertyPath: m_Name
      value: barrel (2)
      objectReference: {fileID: 0}
    m_RemovedComponents: []
  m_SourcePrefab: {fileID: 100100000, guid: 633c33dc19545a84b92b33094a13eeab, type: 3}
--- !u!4 &4263434445325439987 stripped
Transform:
  m_CorrespondingSourceObject: {fileID: -8679921383154817045, guid: 633c33dc19545a84b92b33094a13eeab,
    type: 3}
  m_PrefabInstance: {fileID: 4368626291855127576}
  m_PrefabAsset: {fileID: 0}
--- !u!1001 &7836132989344118121
PrefabInstance:
  m_ObjectHideFlags: 0
  serializedVersion: 2
  m_Modification:
    m_TransformParent: {fileID: 2968767758216679919}
    m_Modifications:
    - target: {fileID: -8679921383154817045, guid: 633c33dc19545a84b92b33094a13eeab,
        type: 3}
      propertyPath: m_LocalPosition.x
      value: -0.2709961
      objectReference: {fileID: 0}
    - target: {fileID: -8679921383154817045, guid: 633c33dc19545a84b92b33094a13eeab,
        type: 3}
      propertyPath: m_LocalPosition.y
      value: 1.2171485
      objectReference: {fileID: 0}
    - target: {fileID: -8679921383154817045, guid: 633c33dc19545a84b92b33094a13eeab,
        type: 3}
      propertyPath: m_LocalPosition.z
      value: -0.49357986
      objectReference: {fileID: 0}
    - target: {fileID: -8679921383154817045, guid: 633c33dc19545a84b92b33094a13eeab,
        type: 3}
      propertyPath: m_LocalRotation.x
      value: -0
      objectReference: {fileID: 0}
    - target: {fileID: -8679921383154817045, guid: 633c33dc19545a84b92b33094a13eeab,
        type: 3}
      propertyPath: m_LocalRotation.y
      value: 0.49999917
      objectReference: {fileID: 0}
    - target: {fileID: -8679921383154817045, guid: 633c33dc19545a84b92b33094a13eeab,
        type: 3}
      propertyPath: m_LocalRotation.z
      value: -0
      objectReference: {fileID: 0}
    - target: {fileID: -8679921383154817045, guid: 633c33dc19545a84b92b33094a13eeab,
        type: 3}
      propertyPath: m_LocalRotation.w
      value: 0.8660259
      objectReference: {fileID: 0}
    - target: {fileID: -8679921383154817045, guid: 633c33dc19545a84b92b33094a13eeab,
        type: 3}
      propertyPath: m_RootOrder
      value: 0
      objectReference: {fileID: 0}
    - target: {fileID: -8679921383154817045, guid: 633c33dc19545a84b92b33094a13eeab,
        type: 3}
      propertyPath: m_LocalEulerAnglesHint.x
      value: 0
      objectReference: {fileID: 0}
    - target: {fileID: -8679921383154817045, guid: 633c33dc19545a84b92b33094a13eeab,
        type: 3}
      propertyPath: m_LocalEulerAnglesHint.y
      value: 60.000004
      objectReference: {fileID: 0}
    - target: {fileID: -8679921383154817045, guid: 633c33dc19545a84b92b33094a13eeab,
        type: 3}
      propertyPath: m_LocalEulerAnglesHint.z
      value: 0
      objectReference: {fileID: 0}
    - target: {fileID: -8679921383154817045, guid: 633c33dc19545a84b92b33094a13eeab,
        type: 3}
      propertyPath: m_LocalScale.y
      value: 8
      objectReference: {fileID: 0}
    - target: {fileID: -7511558181221131132, guid: 633c33dc19545a84b92b33094a13eeab,
        type: 3}
      propertyPath: m_Materials.Array.data[0]
      value: 
      objectReference: {fileID: 2100000, guid: ca51888b891a5f64a9fb80cbdab986e9, type: 2}
    - target: {fileID: 919132149155446097, guid: 633c33dc19545a84b92b33094a13eeab,
        type: 3}
      propertyPath: m_Name
      value: barrel (1)
      objectReference: {fileID: 0}
    m_RemovedComponents: []
  m_SourcePrefab: {fileID: 100100000, guid: 633c33dc19545a84b92b33094a13eeab, type: 3}
--- !u!4 &7725133593251287682 stripped
Transform:
  m_CorrespondingSourceObject: {fileID: -8679921383154817045, guid: 633c33dc19545a84b92b33094a13eeab,
    type: 3}
  m_PrefabInstance: {fileID: 7836132989344118121}
  m_PrefabAsset: {fileID: 0}
--- !u!1001 &8795808011585709790
PrefabInstance:
  m_ObjectHideFlags: 0
  serializedVersion: 2
  m_Modification:
    m_TransformParent: {fileID: 2968767758216679919}
    m_Modifications:
    - target: {fileID: -8679921383154817045, guid: 633c33dc19545a84b92b33094a13eeab,
        type: 3}
      propertyPath: m_LocalPosition.x
      value: -0.2709961
      objectReference: {fileID: 0}
    - target: {fileID: -8679921383154817045, guid: 633c33dc19545a84b92b33094a13eeab,
        type: 3}
      propertyPath: m_LocalPosition.y
      value: 1.2171495
      objectReference: {fileID: 0}
    - target: {fileID: -8679921383154817045, guid: 633c33dc19545a84b92b33094a13eeab,
        type: 3}
      propertyPath: m_LocalPosition.z
      value: 0.50642014
      objectReference: {fileID: 0}
    - target: {fileID: -8679921383154817045, guid: 633c33dc19545a84b92b33094a13eeab,
        type: 3}
      propertyPath: m_LocalRotation.x
      value: -0
      objectReference: {fileID: 0}
    - target: {fileID: -8679921383154817045, guid: 633c33dc19545a84b92b33094a13eeab,
        type: 3}
      propertyPath: m_LocalRotation.y
      value: -0
      objectReference: {fileID: 0}
    - target: {fileID: -8679921383154817045, guid: 633c33dc19545a84b92b33094a13eeab,
        type: 3}
      propertyPath: m_LocalRotation.z
      value: -0
      objectReference: {fileID: 0}
    - target: {fileID: -8679921383154817045, guid: 633c33dc19545a84b92b33094a13eeab,
        type: 3}
      propertyPath: m_LocalRotation.w
      value: 1
      objectReference: {fileID: 0}
    - target: {fileID: -8679921383154817045, guid: 633c33dc19545a84b92b33094a13eeab,
        type: 3}
      propertyPath: m_RootOrder
      value: 2
      objectReference: {fileID: 0}
    - target: {fileID: -8679921383154817045, guid: 633c33dc19545a84b92b33094a13eeab,
        type: 3}
      propertyPath: m_LocalEulerAnglesHint.x
      value: 0
      objectReference: {fileID: 0}
    - target: {fileID: -8679921383154817045, guid: 633c33dc19545a84b92b33094a13eeab,
        type: 3}
      propertyPath: m_LocalEulerAnglesHint.y
      value: 0
      objectReference: {fileID: 0}
    - target: {fileID: -8679921383154817045, guid: 633c33dc19545a84b92b33094a13eeab,
        type: 3}
      propertyPath: m_LocalEulerAnglesHint.z
      value: 0
      objectReference: {fileID: 0}
    - target: {fileID: -8679921383154817045, guid: 633c33dc19545a84b92b33094a13eeab,
        type: 3}
      propertyPath: m_LocalScale.x
      value: 1
      objectReference: {fileID: 0}
    - target: {fileID: -8679921383154817045, guid: 633c33dc19545a84b92b33094a13eeab,
        type: 3}
      propertyPath: m_LocalScale.y
      value: 8
      objectReference: {fileID: 0}
    - target: {fileID: -8679921383154817045, guid: 633c33dc19545a84b92b33094a13eeab,
        type: 3}
      propertyPath: m_LocalScale.z
      value: 1
      objectReference: {fileID: 0}
    - target: {fileID: -7511558181221131132, guid: 633c33dc19545a84b92b33094a13eeab,
        type: 3}
      propertyPath: m_Materials.Array.data[0]
      value: 
      objectReference: {fileID: 2100000, guid: ca51888b891a5f64a9fb80cbdab986e9, type: 2}
    - target: {fileID: 919132149155446097, guid: 633c33dc19545a84b92b33094a13eeab,
        type: 3}
      propertyPath: m_Name
      value: barrel
      objectReference: {fileID: 0}
    m_RemovedComponents: []
  m_SourcePrefab: {fileID: 100100000, guid: 633c33dc19545a84b92b33094a13eeab, type: 3}
--- !u!4 &9050623047893287221 stripped
Transform:
  m_CorrespondingSourceObject: {fileID: -8679921383154817045, guid: 633c33dc19545a84b92b33094a13eeab,
    type: 3}
  m_PrefabInstance: {fileID: 8795808011585709790}
  m_PrefabAsset: {fileID: 0}
