%YAML 1.1
%TAG !u! tag:unity3d.com,2011:
--- !u!1 &7512034233098919749
GameObject:
  m_ObjectHideFlags: 0
  m_CorrespondingSourceObject: {fileID: 0}
  m_PrefabInstance: {fileID: 0}
  m_PrefabAsset: {fileID: 0}
  serializedVersion: 6
  m_Component:
  - component: {fileID: 7512034233098919746}
  - component: {fileID: 7512034233098919747}
  - component: {fileID: 3991797650708161120}
  m_Layer: 9
  m_Name: InteractableKasha
  m_TagString: Untagged
  m_Icon: {fileID: 0}
  m_NavMeshLayer: 0
  m_StaticEditorFlags: 0
  m_IsActive: 1
--- !u!4 &7512034233098919746
Transform:
  m_ObjectHideFlags: 0
  m_CorrespondingSourceObject: {fileID: 0}
  m_PrefabInstance: {fileID: 0}
  m_PrefabAsset: {fileID: 0}
  m_GameObject: {fileID: 7512034233098919749}
  m_LocalRotation: {x: 0, y: 0, z: 0, w: 1}
  m_LocalPosition: {x: 0, y: 0, z: 0}
  m_LocalScale: {x: 0.2, y: 0.4, z: 0.4}
  m_Children:
  - {fileID: 3456161124743040733}
  m_Father: {fileID: 0}
  m_RootOrder: 0
  m_LocalEulerAnglesHint: {x: 0, y: 0, z: 0}
--- !u!65 &7512034233098919747
BoxCollider:
  m_ObjectHideFlags: 0
  m_CorrespondingSourceObject: {fileID: 0}
  m_PrefabInstance: {fileID: 0}
  m_PrefabAsset: {fileID: 0}
  m_GameObject: {fileID: 7512034233098919749}
  m_Material: {fileID: 0}
  m_IsTrigger: 0
  m_Enabled: 1
  serializedVersion: 2
  m_Size: {x: 1.93, y: 0.28, z: 1}
  m_Center: {x: 0, y: 0, z: 0}
--- !u!114 &3991797650708161120
MonoBehaviour:
  m_ObjectHideFlags: 0
  m_CorrespondingSourceObject: {fileID: 0}
  m_PrefabInstance: {fileID: 0}
  m_PrefabAsset: {fileID: 0}
  m_GameObject: {fileID: 7512034233098919749}
  m_Enabled: 1
  m_EditorHideFlags: 0
  m_Script: {fileID: 11500000, guid: 053ae46c062dfcc4899c6fecd0757ec6, type: 3}
  m_Name: 
  m_EditorClassIdentifier: 
  holdDuration: 0
  holdInteract: 0
  isInteractable: 0
  tooltipHoverText: "\u0412\u0437\u044F\u0442\u044C"
  tooltipHoldText: "\u0412\u0437\u0430\u0438\u043C\u043E\u0434\u0435\u0439\u0441\u0442\u0432\u0443\u044E"
  tooltipNotInteractableText: "\u0421\u043D\u0430\u0447\u0430\u043B\u0430 \u043F\u043E\u0441\u0442\u0430\u0432\u043B\u044E
    \u0432\u043E\u0434\u0443"
  kashaBox: {fileID: 0}
--- !u!1001 &2917340001264970038
PrefabInstance:
  m_ObjectHideFlags: 0
  serializedVersion: 2
  m_Modification:
    m_TransformParent: {fileID: 7512034233098919746}
    m_Modifications:
    - target: {fileID: -8679921383154817045, guid: b87e4973d4e2ef2438466ecd1bba584c,
        type: 3}
      propertyPath: m_LocalPosition.x
      value: -0.005
      objectReference: {fileID: 0}
    - target: {fileID: -8679921383154817045, guid: b87e4973d4e2ef2438466ecd1bba584c,
        type: 3}
      propertyPath: m_LocalPosition.y
      value: 0.013
      objectReference: {fileID: 0}
    - target: {fileID: -8679921383154817045, guid: b87e4973d4e2ef2438466ecd1bba584c,
        type: 3}
      propertyPath: m_LocalPosition.z
      value: 0.046
      objectReference: {fileID: 0}
    - target: {fileID: -8679921383154817045, guid: b87e4973d4e2ef2438466ecd1bba584c,
        type: 3}
      propertyPath: m_LocalRotation.x
      value: -0
      objectReference: {fileID: 0}
    - target: {fileID: -8679921383154817045, guid: b87e4973d4e2ef2438466ecd1bba584c,
        type: 3}
      propertyPath: m_LocalRotation.y
      value: -0
      objectReference: {fileID: 0}
    - target: {fileID: -8679921383154817045, guid: b87e4973d4e2ef2438466ecd1bba584c,
        type: 3}
      propertyPath: m_LocalRotation.z
      value: -0
      objectReference: {fileID: 0}
    - target: {fileID: -8679921383154817045, guid: b87e4973d4e2ef2438466ecd1bba584c,
        type: 3}
      propertyPath: m_LocalRotation.w
      value: 1
      objectReference: {fileID: 0}
    - target: {fileID: -8679921383154817045, guid: b87e4973d4e2ef2438466ecd1bba584c,
        type: 3}
      propertyPath: m_RootOrder
      value: 0
      objectReference: {fileID: 0}
    - target: {fileID: -8679921383154817045, guid: b87e4973d4e2ef2438466ecd1bba584c,
        type: 3}
      propertyPath: m_LocalEulerAnglesHint.x
      value: 0
      objectReference: {fileID: 0}
    - target: {fileID: -8679921383154817045, guid: b87e4973d4e2ef2438466ecd1bba584c,
        type: 3}
      propertyPath: m_LocalEulerAnglesHint.y
      value: 0
      objectReference: {fileID: 0}
    - target: {fileID: -8679921383154817045, guid: b87e4973d4e2ef2438466ecd1bba584c,
        type: 3}
      propertyPath: m_LocalEulerAnglesHint.z
      value: 0
      objectReference: {fileID: 0}
    - target: {fileID: -8679921383154817045, guid: b87e4973d4e2ef2438466ecd1bba584c,
        type: 3}
      propertyPath: m_LocalScale.x
      value: 5
      objectReference: {fileID: 0}
    - target: {fileID: -8679921383154817045, guid: b87e4973d4e2ef2438466ecd1bba584c,
        type: 3}
      propertyPath: m_LocalScale.y
      value: 2.5
      objectReference: {fileID: 0}
    - target: {fileID: -8679921383154817045, guid: b87e4973d4e2ef2438466ecd1bba584c,
        type: 3}
      propertyPath: m_LocalScale.z
      value: 2.5
      objectReference: {fileID: 0}
    - target: {fileID: -7511558181221131132, guid: b87e4973d4e2ef2438466ecd1bba584c,
        type: 3}
      propertyPath: m_Materials.Array.data[2]
      value: 
      objectReference: {fileID: 2100000, guid: 1f6a9190d7533404fb7de7013c9a4163, type: 2}
    - target: {fileID: 919132149155446097, guid: b87e4973d4e2ef2438466ecd1bba584c,
        type: 3}
      propertyPath: m_Name
      value: kawa
      objectReference: {fileID: 0}
    m_RemovedComponents: []
  m_SourcePrefab: {fileID: 100100000, guid: b87e4973d4e2ef2438466ecd1bba584c, type: 3}
--- !u!4 &3456161124743040733 stripped
Transform:
  m_CorrespondingSourceObject: {fileID: -8679921383154817045, guid: b87e4973d4e2ef2438466ecd1bba584c,
    type: 3}
  m_PrefabInstance: {fileID: 2917340001264970038}
  m_PrefabAsset: {fileID: 0}
